GET https://a3fceef08822b11e9b0640a5715a3e09-630439610.us-east-1.elb.amazonaws.com:8443/cart HTTP/1.1
Host: a3fceef08822b11e9b0640a5715a3e09-630439610.us-east-1.elb.amazonaws.com:8443
User-Agent: Mozilla/5.0 (X11; Linux x86_64; rv:60.0) Gecko/20100101 Firefox/60.0
Accept: text/html,application/xhtml+xml,application/xml;q=0.9,*/*;q=0.8
Accept-Language: en-US,en;q=0.5
Accept-Encoding: gzip, deflate, br
Referer: https://a3fceef08822b11e9b0640a5715a3e09-630439610.us-east-1.elb.amazonaws.com:8443/
Cookie: JSESSIONID=9BC9E21F5C6A957F194AC4B0C60BD32A; ActiveID=AR9Y-4E7H-S04S-FK9M-8OBZ-95MR-WTZK-3HP3
Connection: keep-alive
Upgrade-Insecure-Requests: 1

